# Exported from 3D Builder
mtllib beam.mtl

o Object.1
v -0.385915 -0.931453 -5.926042
v -1.993704 2.000000 -6.000000
v -0.187145 1.599652 -5.926042
v 1.296372 -1.083210 -5.926042
v 2.000000 1.402357 -5.873947
v 1.296372 -1.083210 -3.621417
v 1.399907 -1.847800 -5.875236
v 1.539582 -1.981247 -3.621417
v -0.443451 -1.664369 -3.621417
v -0.443451 -1.664369 -5.909962
v -2.000000 -1.681615 -5.926042
v -1.749211 -0.808504 -5.926042
v -1.749211 -0.808504 -3.621417
v -1.806686 -1.541412 -3.621417
v -1.856703 -0.798824 3.220107
v -1.806686 -1.541420 3.220107
v -1.749211 -0.808513 6.000000
v -1.381951 1.707484 5.964624
v -1.540049 1.853926 3.220107
v -0.187145 1.599643 6.000000
v -0.187145 1.599652 3.220107
v -1.550426 1.722608 -3.621417
v -0.187145 1.599652 -3.621417
v 1.507636 1.606899 3.220107
v 1.503670 1.556414 -3.621417
v 1.296372 -1.083218 3.220107
v 1.417282 -1.898531 3.220107
v 1.534684 -2.000000 5.965269
v 1.296372 -1.083218 6.000000
v -0.385915 -0.931460 6.000000
v -0.443451 -1.664377 6.000000
v -1.806686 -1.541420 5.965912
v 1.395712 1.456952 5.960767
v -0.454790 -1.808444 3.220107

vt 0.844273 0.893116
vt 0.953055 0.848952
vt 0.947710 0.890102
vt 0.848613 0.930625
vt 0.953055 0.938992
vt 0.283298 0.950287
vt 0.203408 0.946468
vt 0.283153 0.774159
vt 0.308455 0.946403
vt 0.312927 0.774175
vt 0.588583 0.926332
vt 0.583595 0.766109
vt 0.668316 0.766359
vt 0.666861 0.929037
vt 0.818096 0.935261
vt 0.814231 0.894028
vt 0.803941 0.859745
vt 0.840755 0.862720
vt 0.079833 0.236780
vt 0.080992 0.063432
vt 0.046690 0.063290
vt 0.051510 0.236703
vt 0.076434 0.751353
vt 0.048070 0.751305
vt 0.074995 0.960478
vt 0.172765 0.958128
vt 0.179282 0.751660
vt 0.539614 0.291104
vt 0.538159 0.101168
vt 0.482047 0.098226
vt 0.475498 0.290529
vt 0.523497 0.764366
vt 0.459379 0.763801
vt 0.539614 0.929118
vt 0.177646 0.237044
vt 0.188131 0.058032
vt 0.396376 0.289843
vt 0.380256 0.763112
vt 0.453949 0.923227
vt 0.197326 0.774250
vt 0.195254 0.251397
vt 0.282723 0.251305
vt 0.309571 0.251304
vt 0.312927 0.041524
vt 0.282548 0.038855
vt 0.933743 0.833291
vt 0.894804 0.825924
vt 0.894917 0.785808
vt 0.926956 0.785834
vt 0.927145 0.753316
vt 0.895010 0.753300
vt 0.784269 0.785722
vt 0.784269 0.823454
vt 0.672554 0.280046
vt 0.674432 0.082437
vt 0.732265 0.085034
vt 0.730519 0.280216
vt 0.593427 0.279804
vt 0.199774 0.041925
vt 0.589819 0.084656
vt 0.407509 0.100283
vt 0.784447 0.757220
vt 0.046690 0.957838
vt 0.726170 0.766534
vt 0.732265 0.930384
vt 0.351204 0.918716

usemtl wood
f 1/1 2/2 3/3
f 4/4 1/1 3/3
f 3/3 5/5 4/4
f 4/6 5/7 6/8
f 7/9 4/6 6/8
f 6/8 8/10 7/9
f 7/11 8/12 9/13
f 9/13 10/14 7/11
f 7/15 10/16 1/1
f 10/16 11/17 1/1
f 11/17 12/18 1/1
f 13/19 12/20 11/21
f 11/21 14/22 13/19
f 15/23 13/19 14/22
f 14/22 16/24 15/23
f 16/24 17/25 15/23
f 15/23 17/25 18/26
f 15/23 18/26 19/27
f 19/28 18/29 20/30
f 19/28 20/30 21/31
f 22/32 19/28 21/31
f 22/32 21/31 23/33
f 2/34 22/32 23/33
f 22/35 2/36 12/20
f 23/33 21/31 24/37
f 24/37 25/38 23/33
f 3/39 23/33 25/38
f 25/40 24/41 26/42
f 25/40 26/42 6/8
f 27/43 6/8 26/42
f 28/44 27/43 26/42
f 26/42 29/45 28/44
f 28/46 29/47 30/48
f 31/49 28/46 30/48
f 32/50 31/49 30/48
f 17/51 32/50 30/48
f 17/51 30/48 20/52
f 30/48 33/53 20/52
f 34/54 31/55 32/56
f 32/56 16/57 34/54
f 9/13 34/54 16/57
f 27/58 31/55 34/54
f 8/12 27/58 34/54
f 30/48 29/47 33/53
f 24/41 33/59 29/45
f 27/58 28/60 31/55
f 24/41 29/45 26/42
f 33/61 24/37 21/31
f 19/27 22/35 13/19
f 21/31 20/30 33/61
f 18/62 17/51 20/52
f 16/24 32/63 17/25
f 16/57 14/64 9/13
f 19/27 13/19 15/23
f 9/13 14/64 11/65
f 22/35 12/20 13/19
f 11/65 10/14 9/13
f 34/54 9/13 8/12
f 27/43 8/10 6/8
f 5/7 25/40 6/8
f 25/38 5/66 3/39
f 4/4 7/15 1/1
f 3/39 2/34 23/33
f 1/1 12/18 2/2
